Estimation of demographic parameters - live demos
…
Read in csv file:

```r
dipper_csv <- read_csv("dat/dipper.csv")
```

---
## Read in data (2)

```r
dipper_csv
```

```
# A tibble: 294 × 9
   year_1981 year_1982 year_1983 year_1984 year_1985 year_1986 year_1987 sex  
       <dbl>     <dbl>     <dbl>     <dbl>     <dbl>     <dbl>     <dbl> <chr>
 1         1         1         1         1         1         1         0 M    
 2         1         1         1         1         1         0         0 F    
 3         1         1         1         1         0         0         0 M    
 4         1         1         1         1         0         0         0 F    
 5         1         1         0         1         1         1         0 F    
 6         1         1         0         0         0         0         0 M    
 7         1         1         0         0         0         0         0 M    
 8         1         1         0         0         0         0         0 M    
 9         1         1         0         0         0         0         0 M    
10         1         1         0         0         0         0         0 F    
# … with 284 more rows, and 1 more variable: wing_length <dbl>
```
…
Read in csv file:

```r
geese_csv <- read_csv2("dat/allgeese.csv")
```

---
## Read in data (2)

```r
geese_csv
```

```
# A tibble: 623 × 7
   year_1984 year_1985 year_1986 year_1987 year_1988 year_1989     N
       <dbl>     <dbl>     <dbl>     <dbl>     <dbl>     <dbl> <dbl>
 1         0         0         0         0         0         1   158
 2         0         0         0         0         0         2   352
 3         0         0         0         0         0         3   271
 4         0         0         0         0         1         0   317
 5         0         0         0         0         1         1    62
 6         0         0         0         0         1         2    31
 7         0         0         0         0         2         0   748
 8         0         0         0         0         2         1    56
 9         0         0         0         0         2         2   234
10         0         0         0         0         2         3     7
# … with 613 more rows
```
…
